<?xml version="1.0" encoding="UTF-8" ?>
<!DOCTYPE svg PUBLIC "-//W3C//DTD SVG 1.1//EN" "http://www.w3.org/Graphics/SVG/1.1/DTD/svg11.dtd">
<svg width="2944pt" height="340pt" viewBox="0 0 2944 340" version="1.1" xmlns="http://www.w3.org/2000/svg">

<path class="cms-svg-text" fill="#92c8fd" d=" M 2144.16 17.13 C 2161.78 9.09 2180.67 3.76 2199.94 1.72 C 2209.32 1.57 2218.70 -1.71 2228.01 1.09 C 2259.57 3.05 2290.81 13.16 2316.95 31.09 C 2328.20 38.86 2338.48 48.02 2347.63 58.18 C 2326.06 77.47 2304.13 96.36 2282.46 115.52 C 2280.21 117.64 2277.83 119.62 2275.25 121.31 C 2263.96 108.88 2248.43 100.60 2231.92 97.71 C 2212.50 93.96 2191.78 98.42 2175.44 109.51 C 2161.46 118.39 2151.34 132.65 2146.51 148.39 C 2140.15 168.26 2143.41 190.87 2154.71 208.34 C 2161.37 218.10 2169.89 226.74 2180.02 232.89 C 2198.46 243.95 2221.60 246.52 2242.09 240.06 C 2257.34 235.71 2270.58 225.68 2280.05 213.11 C 2282.41 213.58 2284.22 215.42 2286.22 216.69 C 2310.77 233.75 2335.42 250.68 2359.98 267.73 C 2319.87 322.91 2244.85 349.19 2178.89 332.54 C 2145.44 324.25 2114.12 306.77 2090.28 281.77 C 2066.16 255.50 2050.44 221.51 2046.56 186.02 C 2042.57 151.51 2050.66 116.00 2068.05 86.04 C 2085.51 55.94 2112.63 31.72 2144.16 17.13 Z" />
<path class="cms-svg-text" fill="#92c8fd" d=" M 2801.02 1.87 C 2808.49 1.59 2815.83 -1.35 2823.33 0.59 C 2828.90 2.19 2834.42 -0.39 2840.03 0.01 C 2843.07 -0.25 2845.93 1.20 2848.97 1.37 C 2871.21 2.65 2893.36 6.91 2914.25 14.72 C 2912.43 27.73 2914.07 40.92 2912.91 53.98 C 2912.64 71.36 2911.53 88.71 2910.56 106.06 C 2889.56 98.52 2868.03 92.29 2845.98 88.67 C 2834.17 86.79 2820.90 86.79 2810.66 93.78 C 2807.37 95.82 2805.12 100.18 2806.97 103.90 C 2809.32 108.60 2813.16 112.97 2818.25 114.71 C 2836.86 120.80 2855.54 126.71 2874.11 132.93 C 2906.59 144.58 2934.58 172.12 2941.62 206.56 C 2942.00 211.81 2945.14 216.86 2943.28 222.14 C 2941.92 226.95 2944.16 231.68 2943.96 236.49 C 2942.50 240.81 2941.99 245.33 2941.30 249.81 C 2938.16 265.60 2931.05 280.52 2921.19 293.21 C 2910.81 306.43 2897.11 316.88 2881.91 323.98 C 2864.73 332.00 2845.93 336.48 2827.01 337.35 C 2805.96 337.59 2784.66 338.45 2763.96 333.89 C 2743.72 329.47 2724.16 322.48 2704.84 315.08 C 2711.90 282.37 2719.36 249.75 2726.58 217.07 C 2733.77 218.96 2740.64 221.85 2747.62 224.40 C 2759.20 229.00 2771.06 232.86 2782.66 237.42 C 2791.57 240.69 2800.43 244.60 2809.98 245.60 C 2816.69 246.55 2823.92 246.35 2830.01 243.03 C 2835.91 239.99 2837.96 232.03 2835.56 226.10 C 2833.43 220.77 2828.85 216.84 2824.00 214.02 C 2816.27 209.53 2807.56 207.16 2798.98 204.92 C 2782.69 200.43 2767.54 192.29 2754.37 181.76 C 2739.55 170.11 2727.07 155.40 2718.34 138.66 C 2709.38 121.79 2704.69 102.32 2707.17 83.22 C 2708.75 67.40 2714.45 51.87 2724.42 39.39 C 2736.19 24.49 2752.83 13.68 2770.99 8.30 C 2780.82 5.45 2790.82 3.00 2801.02 1.87 Z" />
<path class="webkore-svg-text" fill="#0a6dcd" d=" M 0.00 3.10 C 36.58 3.48 73.16 3.37 109.74 3.37 C 123.87 56.43 137.95 109.51 152.08 162.57 C 163.30 109.56 173.95 56.43 184.99 3.38 C 211.04 3.40 237.09 3.30 263.14 3.43 C 273.92 56.27 285.35 108.98 295.99 161.84 C 296.23 161.64 296.72 161.23 296.97 161.03 C 310.49 108.41 324.55 55.93 338.30 3.37 C 374.82 3.39 411.35 3.34 447.88 3.40 C 416.27 113.88 384.54 224.33 353.04 334.85 C 319.66 334.90 286.27 334.95 252.88 334.82 C 243.41 299.28 233.92 263.74 224.21 228.26 C 214.47 263.79 204.77 299.33 195.11 334.88 C 161.72 334.84 128.34 334.99 94.95 334.80 C 64.13 226.29 32.85 117.89 1.92 9.40 C 1.45 7.73 0.76 6.13 0.00 4.57 L 0.00 3.10 Z" />
<path class="webkore-svg-text" fill="#0a6dcd" d=" M 873.70 3.45 C 905.69 3.27 937.68 3.43 969.67 3.37 C 969.71 42.52 969.60 81.67 969.73 120.81 C 990.18 81.80 1010.05 42.48 1030.31 3.37 C 1066.32 3.38 1102.33 3.35 1138.34 3.39 C 1111.41 56.34 1083.96 109.02 1056.82 161.86 C 1055.82 164.73 1052.25 167.67 1054.12 170.80 C 1082.27 225.48 1110.36 280.18 1138.46 334.88 C 1102.37 334.88 1066.28 334.97 1030.19 334.83 C 1017.25 309.45 1004.14 284.16 991.14 258.81 C 983.95 245.09 977.17 231.15 969.75 217.56 C 969.58 256.67 969.72 295.77 969.68 334.88 C 937.69 334.89 905.71 334.90 873.73 334.87 C 873.71 224.40 873.77 113.93 873.70 3.45 Z" />
<path class="cms-svg-text" fill="#92c8fd" d=" M 2375.37 3.39 C 2407.38 3.40 2439.39 3.27 2471.40 3.45 C 2491.19 30.22 2510.92 57.04 2530.98 83.61 C 2551.32 57.02 2571.40 30.22 2591.50 3.44 C 2623.51 3.28 2655.52 3.40 2687.53 3.38 C 2687.55 113.86 2687.47 224.34 2687.57 334.81 C 2655.61 335.02 2623.65 334.83 2591.69 334.91 C 2591.50 277.90 2591.75 220.90 2591.56 163.89 C 2576.61 183.20 2562.20 202.93 2547.48 222.41 C 2541.89 229.53 2536.89 237.12 2531.01 243.98 C 2524.95 236.98 2519.93 229.13 2514.27 221.82 C 2499.95 202.56 2485.96 183.05 2471.40 163.98 C 2471.22 220.94 2471.44 277.90 2471.29 334.85 C 2439.31 334.94 2407.33 334.93 2375.36 334.86 C 2375.40 224.37 2375.38 113.88 2375.37 3.39 Z" />
<path class="webkore-svg-text" fill="#0a6dcd" d=" M 1222.91 72.00 C 1229.23 70.60 1235.83 70.68 1242.04 68.74 C 1247.72 68.49 1253.46 68.20 1259.14 68.84 C 1267.69 70.63 1276.48 71.00 1284.96 73.24 C 1322.73 81.92 1356.71 106.62 1375.70 140.52 C 1396.15 176.11 1398.27 221.60 1380.84 258.81 C 1365.74 292.20 1336.37 318.44 1302.06 330.97 C 1288.58 335.74 1274.42 339.48 1260.01 339.00 C 1246.67 338.72 1233.11 340.09 1220.03 336.73 C 1185.29 329.49 1153.56 308.73 1133.28 279.59 C 1120.57 261.43 1112.37 240.03 1110.29 217.93 C 1109.12 209.70 1108.73 201.25 1110.11 193.02 C 1112.52 165.54 1124.05 139.07 1142.16 118.31 C 1162.86 94.39 1191.88 77.97 1222.91 72.00 Z" />
<path class="webkore-svg-text" fill="#0a6dcd" d=" M 442.78 72.68 C 507.00 72.65 571.22 72.67 635.44 72.67 C 635.45 99.20 635.45 125.73 635.44 152.26 C 599.84 152.33 564.24 152.15 528.65 152.35 C 528.72 158.49 528.64 164.64 528.72 170.78 C 558.57 170.79 588.42 170.72 618.27 170.82 C 618.27 193.36 618.24 215.90 618.28 238.44 C 588.42 238.68 558.55 238.45 528.69 238.55 C 528.68 244.17 528.68 249.80 528.69 255.42 C 564.28 255.46 599.86 255.40 635.45 255.45 C 635.44 281.93 635.45 308.41 635.44 334.89 C 571.22 334.87 507.00 334.92 442.77 334.87 C 442.77 247.47 442.77 160.08 442.78 72.68 Z" />
<path class="webkore-svg-text" fill="#0a6dcd" d=" M 648.19 72.67 C 686.48 72.65 724.76 72.68 763.05 72.66 C 782.78 72.25 802.52 78.27 818.97 89.09 C 836.28 101.16 848.68 120.79 850.50 141.99 C 852.45 163.23 845.23 185.77 828.98 200.08 C 843.85 210.16 854.53 225.79 859.43 242.99 C 863.72 258.00 861.94 274.46 855.31 288.52 C 841.87 317.62 809.65 335.57 778.03 334.89 C 734.75 334.88 691.47 334.90 648.20 334.88 C 648.19 247.48 648.20 160.08 648.19 72.67 Z" />
<path class="webkore-svg-text" fill="#0a6dcd" d=" M 1404.44 334.87 C 1404.49 247.47 1404.39 160.06 1404.49 72.66 C 1433.32 72.68 1462.15 72.66 1490.98 72.67 C 1503.47 72.78 1516.13 71.91 1528.39 74.88 C 1547.06 79.39 1564.34 89.52 1577.55 103.47 C 1591.08 116.67 1600.34 134.04 1604.23 152.51 C 1610.24 180.72 1602.13 211.00 1584.69 233.72 C 1582.28 237.02 1579.22 239.80 1576.92 243.17 C 1580.00 249.22 1584.29 254.59 1587.80 260.42 C 1603.96 285.22 1620.14 310.01 1636.25 334.84 C 1605.50 334.96 1574.75 334.87 1544.01 334.89 C 1531.59 317.14 1519.16 299.35 1505.32 282.67 C 1501.88 278.75 1498.67 274.55 1494.54 271.34 C 1493.49 270.31 1491.97 270.37 1490.65 270.22 C 1490.07 291.75 1490.55 313.31 1490.40 334.85 C 1461.74 334.94 1433.09 334.90 1404.44 334.87 Z" />
<path class="webkore-svg-text" fill="#0a6dcd" d=" M 1637.64 72.68 C 1701.86 72.65 1766.08 72.67 1830.30 72.67 C 1830.31 99.20 1830.31 125.73 1830.30 152.26 C 1794.71 152.31 1759.11 152.20 1723.52 152.32 C 1723.57 158.47 1723.51 164.63 1723.58 170.79 C 1753.31 170.76 1783.04 170.76 1812.78 170.79 C 1812.76 193.37 1812.78 215.96 1812.76 238.54 C 1783.03 238.53 1753.29 238.53 1723.56 238.54 C 1723.53 244.17 1723.54 249.80 1723.55 255.43 C 1759.14 255.46 1794.72 255.40 1830.31 255.46 C 1830.29 281.93 1830.32 308.41 1830.30 334.89 C 1766.08 334.88 1701.86 334.90 1637.63 334.88 C 1637.63 247.48 1637.63 160.08 1637.64 72.68 Z" />
<path fill="#091623" d=" M 1207.66 83.39 C 1209.14 83.48 1210.65 83.39 1212.03 82.72 C 1215.21 84.80 1218.88 81.88 1222.37 82.65 C 1219.20 85.83 1215.05 87.82 1211.55 90.62 C 1211.29 90.14 1210.77 89.18 1210.51 88.71 C 1211.22 87.75 1211.99 86.83 1212.78 85.91 C 1210.23 87.02 1207.63 88.05 1205.05 89.03 C 1205.76 87.34 1206.61 85.68 1207.37 84.01 L 1207.66 83.39 Z" />
<path fill="#091623" d=" M 1284.13 83.40 C 1284.58 83.69 1285.47 84.28 1285.92 84.57 C 1287.18 84.41 1288.45 84.26 1289.75 84.11 C 1289.63 84.65 1289.38 85.73 1289.26 86.27 C 1288.81 86.34 1287.92 86.48 1287.47 86.55 C 1287.07 86.13 1286.25 85.28 1285.84 84.86 C 1285.16 84.81 1283.79 84.70 1283.11 84.64 C 1283.37 84.33 1283.88 83.71 1284.13 83.40 Z" />
<path fill="#091623" d=" M 1201.19 85.50 C 1203.15 84.66 1205.25 84.30 1207.37 84.01 C 1206.61 85.68 1205.76 87.34 1205.05 89.03 C 1207.63 88.05 1210.23 87.02 1212.78 85.91 C 1211.99 86.83 1211.22 87.75 1210.51 88.71 C 1210.77 89.18 1211.29 90.14 1211.55 90.62 C 1211.03 92.47 1209.43 93.70 1208.14 95.00 C 1208.71 96.16 1209.35 97.30 1209.97 98.45 C 1207.85 98.14 1205.85 98.66 1204.01 99.68 C 1205.67 101.26 1207.35 102.89 1209.48 103.87 C 1207.63 103.62 1205.80 103.45 1203.97 103.35 C 1204.64 104.44 1205.32 105.52 1206.02 106.61 C 1205.33 106.53 1203.96 106.36 1203.27 106.28 C 1203.36 107.05 1203.55 108.60 1203.64 109.37 C 1202.63 109.48 1200.62 109.68 1199.61 109.78 L 1199.20 107.90 C 1198.68 108.57 1197.64 109.93 1197.12 110.61 C 1196.44 110.54 1195.08 110.40 1194.41 110.33 C 1194.48 111.35 1194.56 112.38 1194.66 113.41 C 1195.90 113.43 1197.16 113.46 1198.44 113.49 C 1198.94 115.19 1199.42 116.89 1199.93 118.60 C 1198.92 118.66 1197.92 118.71 1196.94 118.77 C 1195.82 116.99 1194.00 115.99 1192.21 115.05 C 1192.19 115.31 1192.16 115.83 1192.14 116.09 C 1192.97 116.66 1194.63 117.78 1195.46 118.35 C 1193.81 118.45 1192.20 118.51 1190.58 118.54 L 1190.65 119.65 L 1189.47 119.57 C 1189.50 120.04 1189.56 120.96 1189.59 121.42 C 1190.06 121.45 1190.99 121.50 1191.46 121.52 L 1191.35 120.39 C 1193.47 120.48 1195.60 120.58 1197.75 120.70 C 1193.65 124.21 1188.65 126.14 1183.56 127.68 C 1183.40 127.25 1183.09 126.39 1182.93 125.96 C 1181.27 129.58 1177.98 131.98 1175.04 134.49 C 1174.33 134.50 1172.91 134.50 1172.20 134.51 C 1170.47 135.75 1168.67 136.87 1166.85 137.94 C 1166.65 139.00 1166.46 140.06 1166.29 141.13 C 1165.02 142.39 1163.78 143.68 1162.53 144.95 C 1162.50 145.48 1162.44 146.54 1162.41 147.07 C 1161.15 149.00 1160.01 151.01 1158.91 153.03 C 1158.40 151.87 1157.86 150.72 1157.39 149.57 C 1156.36 149.63 1155.36 149.71 1154.37 149.70 C 1153.25 147.60 1153.63 145.15 1153.57 142.87 C 1155.35 139.25 1153.77 134.95 1155.51 131.25 C 1156.27 131.37 1157.79 131.63 1158.55 131.76 C 1158.54 131.06 1158.51 129.65 1158.49 128.95 C 1159.68 127.54 1160.84 126.12 1162.03 124.69 C 1161.25 124.36 1159.70 123.70 1158.93 123.37 C 1158.68 124.84 1158.34 126.28 1157.18 127.30 C 1157.36 125.54 1158.01 123.90 1158.69 122.27 C 1159.88 122.44 1161.06 122.61 1162.29 122.78 C 1162.33 121.56 1162.39 120.33 1162.47 119.11 C 1161.20 119.33 1159.94 119.54 1158.69 119.75 C 1159.52 119.22 1160.37 118.72 1161.24 118.24 C 1163.43 113.47 1162.76 106.80 1167.91 103.94 C 1178.13 96.37 1189.31 90.06 1201.19 85.50 Z" />
<path fill="#091623" d=" M 1256.00 84.95 C 1259.35 84.89 1262.71 85.31 1266.05 85.68 C 1264.93 86.91 1263.95 88.81 1262.00 88.55 C 1259.56 88.31 1257.20 87.66 1254.82 87.19 C 1255.12 86.63 1255.70 85.51 1256.00 84.95 Z" />
<path fill="#091623" d=" M 1246.74 87.43 C 1248.24 87.45 1249.75 87.52 1251.29 87.52 C 1251.59 88.19 1252.19 89.53 1252.48 90.20 C 1252.50 89.18 1252.54 87.13 1252.56 86.10 C 1254.28 87.26 1256.06 88.36 1257.87 89.42 C 1257.53 90.27 1257.20 91.12 1256.87 91.96 C 1256.38 93.66 1255.84 95.34 1255.36 97.04 C 1254.35 96.44 1253.33 95.83 1252.35 95.24 C 1252.39 94.11 1252.44 92.99 1252.49 91.86 C 1252.97 91.45 1253.94 90.63 1254.43 90.22 C 1252.74 90.55 1251.15 91.14 1249.50 91.52 C 1248.39 90.28 1247.59 88.83 1246.74 87.43 Z" />
<path fill="#091623" d=" M 1259.09 89.75 C 1261.01 90.89 1262.96 92.06 1264.87 93.26 C 1263.47 93.97 1261.94 94.40 1260.43 94.73 C 1259.96 93.07 1259.52 91.41 1259.09 89.75 Z" />
<path fill="#091623" d=" M 1308.33 102.56 C 1310.36 99.42 1314.11 98.77 1317.29 97.32 C 1318.02 98.12 1318.77 98.92 1319.52 99.73 C 1316.94 100.81 1314.85 102.65 1313.15 104.82 C 1313.16 105.85 1313.18 107.92 1313.20 108.95 C 1312.78 108.75 1311.96 108.34 1311.55 108.14 C 1313.42 111.39 1314.76 115.15 1318.32 117.00 C 1318.35 117.40 1318.42 118.21 1318.46 118.61 C 1315.00 117.52 1311.99 115.46 1308.70 114.03 C 1308.85 113.38 1309.17 112.07 1309.33 111.42 C 1309.14 111.07 1308.75 110.38 1308.56 110.04 C 1308.68 109.58 1308.93 108.66 1309.05 108.20 C 1308.80 106.32 1308.57 104.43 1308.33 102.56 Z" />
<path fill="#091623" d=" M 1328.18 108.90 C 1331.33 111.07 1333.97 113.84 1335.72 117.27 C 1338.22 122.08 1343.41 125.82 1342.94 131.74 C 1341.63 131.30 1340.32 130.87 1339.04 130.44 C 1340.63 131.17 1342.21 132.64 1344.10 132.18 C 1345.09 129.76 1343.33 127.48 1343.29 125.09 C 1345.04 124.76 1345.85 126.78 1347.02 127.70 C 1346.25 126.62 1345.51 125.54 1344.79 124.46 L 1346.86 123.95 C 1344.94 124.06 1343.03 124.13 1341.14 124.27 C 1339.46 120.64 1336.16 117.89 1335.33 113.89 C 1337.46 115.40 1339.48 117.08 1341.57 118.66 C 1340.80 116.92 1338.36 116.02 1338.91 113.60 C 1340.88 114.65 1342.88 115.78 1344.78 117.00 C 1346.02 118.69 1347.39 120.30 1348.86 121.82 C 1346.21 117.11 1341.45 114.37 1337.76 110.62 C 1339.96 110.33 1342.50 109.82 1344.10 111.82 C 1369.26 134.58 1385.32 167.82 1385.52 201.94 C 1385.71 214.81 1384.47 227.86 1380.49 240.15 C 1379.40 244.00 1376.43 246.85 1374.75 250.38 C 1373.70 254.66 1372.86 259.27 1369.45 262.39 C 1368.40 255.04 1367.04 247.62 1367.78 240.17 C 1366.99 241.37 1366.18 242.55 1365.38 243.73 C 1364.84 243.04 1363.75 241.64 1363.20 240.95 C 1363.52 240.66 1364.15 240.08 1364.47 239.79 C 1363.12 238.92 1361.75 238.04 1360.45 237.15 L 1360.71 236.52 C 1360.93 236.01 1361.36 234.98 1361.57 234.47 C 1361.08 234.48 1360.09 234.50 1359.59 234.51 C 1363.73 224.23 1363.66 212.92 1363.52 202.01 C 1363.86 193.20 1361.80 184.57 1359.83 176.05 C 1355.78 160.40 1348.51 145.40 1337.61 133.35 C 1337.53 132.58 1337.47 131.82 1337.43 131.06 C 1335.12 129.62 1332.97 127.93 1330.96 126.12 C 1331.28 125.51 1331.93 124.31 1332.25 123.70 L 1332.53 123.19 C 1333.96 124.09 1335.43 125.00 1336.92 125.85 C 1334.25 123.16 1331.10 120.79 1329.57 117.21 C 1329.46 114.38 1328.88 111.62 1328.18 108.90 Z" />
<path fill="#091623" d=" M 1265.29 118.43 C 1267.77 116.01 1271.62 114.97 1274.81 116.65 C 1273.58 118.10 1272.06 119.23 1270.19 118.09 C 1267.14 119.60 1264.08 121.09 1260.97 122.44 C 1260.70 123.26 1260.45 124.09 1260.22 124.92 C 1258.98 125.80 1257.78 126.70 1256.57 127.59 C 1256.60 126.64 1256.66 124.74 1256.69 123.78 C 1256.09 124.05 1254.89 124.59 1254.28 124.85 C 1254.94 123.94 1255.61 123.02 1256.30 122.10 C 1257.86 121.50 1259.37 120.79 1260.91 120.08 C 1261.87 118.52 1263.72 118.75 1265.29 118.43 Z" />
<path fill="#091623" d=" M 1274.81 116.65 L 1275.07 116.40 C 1276.81 116.54 1278.56 116.64 1280.31 116.98 C 1280.31 117.69 1280.30 119.11 1280.29 119.83 C 1281.10 119.76 1282.71 119.64 1283.52 119.58 C 1283.50 119.99 1283.48 120.83 1283.47 121.24 C 1286.16 121.47 1289.19 120.89 1291.56 122.57 C 1294.08 124.08 1296.80 125.29 1299.19 127.04 C 1299.61 128.13 1299.43 129.36 1299.59 130.51 C 1294.54 132.16 1289.49 129.66 1285.07 127.40 C 1286.25 129.46 1288.06 130.98 1290.25 131.91 C 1290.18 134.96 1292.61 136.88 1294.84 138.50 C 1295.88 138.47 1296.94 138.44 1298.01 138.40 C 1297.16 137.21 1296.05 136.38 1294.66 135.93 C 1294.56 135.49 1294.35 134.62 1294.25 134.18 C 1296.40 135.17 1298.58 136.10 1300.84 136.88 C 1300.24 135.44 1299.76 134.03 1299.20 132.61 C 1301.01 130.77 1303.35 130.24 1305.85 130.78 C 1305.17 129.54 1304.49 128.31 1303.82 127.09 C 1303.75 126.49 1303.62 125.29 1303.56 124.69 C 1303.20 124.34 1302.48 123.65 1302.12 123.30 C 1303.69 123.78 1305.28 124.28 1306.86 124.78 C 1306.27 125.96 1305.69 127.14 1305.13 128.32 C 1306.28 128.49 1308.58 128.83 1309.73 129.00 C 1309.74 128.48 1309.74 127.43 1309.75 126.91 C 1311.49 125.81 1313.27 124.68 1315.31 124.17 C 1315.57 123.80 1316.10 123.08 1316.36 122.72 C 1316.43 123.46 1316.59 124.93 1316.66 125.67 C 1318.77 124.92 1320.89 124.20 1323.04 123.52 C 1323.85 124.22 1324.79 124.69 1325.86 124.92 C 1326.31 121.32 1322.13 120.26 1320.05 118.18 C 1323.83 120.68 1328.45 121.24 1332.25 123.70 C 1331.93 124.31 1331.28 125.51 1330.96 126.12 C 1332.97 127.93 1335.12 129.62 1337.43 131.06 C 1337.47 131.82 1337.53 132.58 1337.61 133.35 C 1348.51 145.40 1355.78 160.40 1359.83 176.05 C 1361.80 184.57 1363.86 193.20 1363.52 202.01 C 1363.66 212.92 1363.73 224.23 1359.59 234.51 C 1360.09 234.50 1361.08 234.48 1361.57 234.47 C 1361.36 234.98 1360.93 236.01 1360.71 236.52 C 1358.32 235.25 1355.64 235.41 1353.00 236.16 C 1350.87 235.90 1348.74 235.72 1346.62 235.59 C 1346.98 232.16 1343.72 233.58 1341.95 234.43 C 1340.17 233.64 1338.45 232.81 1336.70 232.02 C 1335.82 230.52 1334.96 229.02 1334.14 227.51 C 1333.15 227.50 1331.18 227.49 1330.20 227.48 C 1330.73 231.93 1333.67 235.68 1336.52 238.98 C 1336.50 239.33 1336.47 240.05 1336.45 240.40 C 1337.48 240.42 1339.55 240.45 1340.59 240.46 C 1341.99 238.98 1343.16 237.32 1344.23 235.58 C 1344.50 238.72 1346.63 240.40 1349.59 240.91 C 1350.02 243.35 1348.53 245.27 1347.17 247.11 C 1345.23 250.74 1341.88 253.36 1338.17 255.01 C 1334.96 258.53 1330.20 260.14 1325.94 262.01 C 1324.54 262.62 1323.14 263.23 1321.78 263.84 C 1321.12 258.81 1320.13 253.48 1316.12 249.95 C 1313.87 248.27 1313.93 245.37 1313.02 242.98 C 1309.84 239.32 1307.18 235.20 1304.87 230.95 C 1304.66 232.09 1304.48 233.24 1304.32 234.38 C 1302.86 232.87 1301.46 231.34 1299.97 229.89 C 1302.47 233.77 1304.15 238.09 1306.62 241.99 C 1306.65 242.50 1306.70 243.51 1306.72 244.02 C 1309.97 245.63 1310.24 249.26 1310.65 252.45 C 1312.93 254.03 1313.97 256.53 1314.61 259.14 C 1317.33 260.36 1319.54 262.37 1321.39 264.68 C 1321.43 265.45 1321.50 266.99 1321.53 267.76 C 1326.29 267.54 1330.66 265.45 1335.10 263.93 C 1334.34 268.51 1331.35 272.18 1328.86 275.94 C 1326.28 279.68 1322.17 281.84 1318.93 284.91 C 1315.51 288.04 1311.92 291.05 1309.23 294.88 C 1309.31 297.55 1309.24 300.27 1310.13 302.84 C 1309.89 303.97 1309.72 305.11 1309.55 306.25 C 1304.45 306.47 1300.47 309.96 1295.97 311.90 C 1285.70 316.62 1274.99 320.61 1263.82 322.55 C 1263.17 324.00 1262.52 325.45 1261.90 326.91 C 1260.72 323.68 1259.88 320.22 1257.47 317.64 C 1254.33 314.40 1257.70 309.88 1260.66 307.89 C 1260.25 306.89 1259.86 305.89 1259.47 304.90 C 1259.42 304.16 1259.34 302.67 1259.30 301.93 C 1258.52 300.54 1257.78 299.15 1257.06 297.76 C 1254.77 295.85 1252.50 293.87 1250.91 291.33 C 1251.22 290.89 1251.85 289.99 1252.16 289.55 C 1252.51 287.87 1252.92 286.20 1253.40 284.55 C 1252.40 283.52 1251.39 282.50 1250.40 281.50 C 1248.51 281.89 1246.64 282.28 1244.78 282.63 C 1243.65 281.13 1242.49 279.65 1241.31 278.22 C 1237.36 278.10 1233.71 279.55 1229.98 280.51 C 1225.50 280.25 1221.04 280.33 1216.58 280.69 C 1213.45 279.71 1210.90 277.44 1208.15 275.72 C 1206.39 274.78 1205.82 272.78 1205.00 271.13 C 1202.96 269.35 1200.93 267.56 1198.75 265.97 C 1198.01 263.71 1196.71 261.34 1197.66 258.94 C 1198.66 256.02 1198.64 252.96 1198.27 249.93 C 1197.77 249.49 1196.76 248.60 1196.25 248.16 C 1198.00 244.69 1200.07 241.41 1201.97 238.03 C 1204.54 234.76 1208.83 233.60 1211.30 230.25 C 1211.09 227.84 1211.67 225.52 1212.61 223.33 C 1215.83 221.90 1218.94 219.71 1219.66 215.99 C 1218.88 215.01 1218.09 214.05 1217.28 213.11 C 1216.02 213.18 1214.78 213.26 1213.56 213.34 C 1213.09 211.56 1212.63 209.79 1212.17 208.03 C 1213.63 204.52 1213.53 200.73 1213.22 197.02 C 1217.82 195.81 1222.54 196.93 1227.19 197.16 C 1229.42 195.75 1228.70 192.50 1229.29 190.21 C 1227.48 187.08 1223.89 186.04 1221.74 183.41 C 1223.69 183.29 1225.67 183.31 1227.64 183.40 C 1227.72 182.84 1227.89 181.73 1227.97 181.17 C 1228.72 181.21 1230.21 181.31 1230.96 181.35 C 1233.60 179.55 1235.46 176.83 1238.29 175.27 C 1238.72 174.01 1239.17 172.76 1239.62 171.50 C 1242.26 170.32 1245.06 169.53 1247.98 169.47 C 1247.74 166.93 1247.11 164.46 1246.49 162.00 C 1248.09 160.77 1249.20 159.06 1250.40 157.45 C 1250.89 160.86 1249.20 164.03 1249.48 167.43 C 1251.92 167.61 1254.37 167.61 1256.82 167.40 C 1257.13 167.81 1257.76 168.63 1258.08 169.04 C 1261.46 167.40 1265.00 164.62 1268.77 166.90 C 1269.74 166.25 1270.72 165.61 1271.73 164.99 C 1271.25 162.31 1271.16 159.53 1272.71 157.15 C 1274.05 158.05 1275.29 159.14 1276.67 160.01 C 1276.63 158.24 1276.91 156.33 1275.80 154.81 C 1275.50 154.05 1275.24 153.29 1275.00 152.53 C 1277.34 151.90 1279.77 151.46 1282.15 152.32 C 1283.62 151.53 1285.09 150.74 1286.57 149.92 C 1284.02 148.22 1281.00 148.37 1278.12 148.75 C 1275.54 150.47 1272.81 149.31 1270.33 148.12 C 1269.92 145.75 1269.50 143.38 1269.23 140.98 C 1271.52 138.62 1273.70 136.17 1275.88 133.71 C 1273.74 131.97 1270.97 132.21 1268.42 132.31 C 1268.37 133.93 1268.34 135.55 1268.36 137.18 C 1266.41 138.92 1264.27 140.49 1262.62 142.53 C 1262.14 144.34 1262.33 146.23 1262.29 148.08 C 1263.44 148.79 1264.65 149.46 1265.69 150.39 C 1265.36 152.20 1263.98 153.52 1262.37 154.28 C 1262.28 156.59 1262.31 158.90 1262.41 161.21 C 1259.82 162.17 1257.37 164.31 1254.47 163.31 C 1254.42 163.71 1254.33 164.51 1254.28 164.91 C 1253.79 164.78 1252.82 164.53 1252.33 164.40 C 1252.45 164.01 1252.70 163.21 1252.82 162.81 C 1253.59 162.75 1255.13 162.63 1255.90 162.57 C 1253.53 158.83 1251.99 154.66 1250.75 150.44 C 1250.64 151.05 1250.43 152.28 1250.32 152.90 C 1248.45 154.06 1246.90 155.84 1244.81 156.57 C 1243.59 156.36 1242.50 155.77 1241.40 155.32 C 1241.56 152.80 1242.37 149.99 1240.58 147.83 C 1240.05 143.40 1245.47 142.39 1248.22 140.15 C 1248.90 137.77 1250.99 136.37 1252.58 134.63 C 1253.60 132.89 1254.05 130.86 1254.71 128.96 C 1255.17 128.61 1256.10 127.93 1256.57 127.59 C 1257.78 126.70 1258.98 125.80 1260.22 124.92 C 1260.45 124.09 1260.70 123.26 1260.97 122.44 C 1264.08 121.09 1267.14 119.60 1270.19 118.09 C 1272.06 119.23 1273.58 118.10 1274.81 116.65 Z" />
<path fill="#091623" d=" M 1308.15 121.14 C 1309.19 119.72 1311.57 121.52 1310.55 122.93 C 1309.47 124.38 1307.09 122.55 1308.15 121.14 Z" />
<path fill="#091623" d=" M 1137.12 137.73 C 1138.46 132.67 1142.43 128.90 1145.94 125.23 C 1145.06 127.65 1143.83 129.92 1142.33 132.00 C 1143.43 133.33 1144.54 134.66 1145.68 135.98 C 1144.00 137.81 1142.31 139.62 1140.60 141.40 C 1140.64 140.51 1140.74 138.75 1140.78 137.86 C 1139.55 137.94 1138.30 138.02 1137.12 137.73 Z" />
<path fill="#091623" d=" M 1193.62 132.92 C 1194.50 132.73 1195.39 132.53 1196.30 132.33 C 1196.63 133.02 1197.29 134.41 1197.63 135.10 L 1198.47 133.64 C 1201.25 132.98 1204.08 132.38 1206.96 132.31 C 1207.41 133.07 1208.31 134.57 1208.76 135.32 C 1205.05 139.15 1199.73 141.72 1194.36 140.26 C 1194.43 138.21 1195.71 135.60 1193.61 134.16 C 1193.61 133.85 1193.62 133.23 1193.62 132.92 Z" />
<path fill="#091623" d=" M 734.22 132.78 C 741.02 132.95 748.00 132.05 754.65 133.92 C 761.94 136.12 768.48 141.82 770.38 149.37 C 771.02 153.58 771.09 158.15 769.09 162.04 C 765.55 169.31 757.86 174.10 749.90 174.86 C 744.69 175.34 739.46 175.04 734.24 175.08 C 734.20 160.98 734.24 146.88 734.22 132.78 Z" />
<path fill="#091623" d=" M 1136.15 138.32 C 1136.56 138.54 1137.38 138.98 1137.79 139.20 C 1139.18 141.42 1139.58 145.37 1137.39 147.09 C 1136.79 146.86 1135.61 146.42 1135.02 146.19 C 1135.23 147.25 1135.65 149.35 1135.86 150.41 C 1134.57 149.51 1132.07 148.97 1132.24 146.95 C 1132.04 143.65 1134.00 140.66 1136.15 138.32 Z" />
<path fill="#091623" d=" M 1116.70 202.06 C 1116.88 184.01 1120.90 165.68 1129.77 149.87 C 1130.05 150.97 1130.61 153.17 1130.89 154.27 C 1130.29 156.72 1129.32 159.19 1129.26 161.70 C 1131.80 159.78 1133.31 156.65 1135.19 154.07 C 1135.13 157.79 1135.67 161.65 1134.42 165.24 C 1135.19 166.81 1135.98 168.47 1137.72 169.24 C 1136.42 170.32 1135.15 171.39 1133.85 172.45 C 1135.25 171.71 1136.45 170.20 1138.20 170.48 C 1139.50 174.13 1137.35 177.80 1136.43 181.29 C 1137.20 181.48 1138.74 181.87 1139.51 182.06 C 1139.33 183.54 1139.19 185.02 1139.05 186.51 C 1138.45 186.80 1137.87 187.10 1137.31 187.40 C 1135.58 186.88 1133.80 186.49 1132.05 186.15 C 1133.61 183.16 1135.10 180.13 1136.57 177.09 C 1133.84 179.80 1130.33 181.01 1126.52 180.56 C 1125.35 181.86 1124.30 183.38 1122.54 183.88 C 1121.98 185.64 1120.22 187.28 1120.69 189.21 C 1121.47 188.18 1122.26 187.15 1123.08 186.13 L 1123.54 185.63 C 1123.36 183.49 1125.98 183.50 1127.41 183.01 C 1126.95 185.19 1126.51 187.37 1126.10 189.56 C 1127.86 189.56 1129.63 189.54 1131.40 189.54 C 1129.15 191.85 1126.66 193.92 1124.12 195.90 C 1123.98 195.13 1123.69 193.59 1123.55 192.82 C 1119.61 194.79 1120.65 200.22 1116.70 202.06 Z" />
<path fill="#091623" d=" M 1489.44 190.65 C 1489.45 177.28 1489.42 163.91 1489.46 150.54 C 1497.00 150.99 1505.13 149.12 1512.12 152.84 C 1518.37 156.12 1523.18 162.84 1522.84 170.09 C 1523.76 180.28 1515.00 189.82 1504.96 190.53 C 1499.79 190.84 1494.61 190.61 1489.44 190.65 Z" />
<path fill="#091623" d=" M 1273.22 154.25 C 1274.52 154.88 1274.53 155.55 1273.23 156.27 C 1271.90 155.64 1271.89 154.97 1273.22 154.25 Z" />
<path fill="#091623" d=" M 1222.05 155.40 C 1222.98 155.38 1224.84 155.32 1225.77 155.29 C 1224.84 156.23 1223.91 157.17 1223.00 158.10 C 1224.72 158.21 1226.44 158.34 1228.18 158.50 C 1227.01 159.85 1225.85 161.18 1224.51 162.35 C 1228.45 163.71 1230.48 167.80 1231.88 171.45 C 1232.59 171.50 1234.01 171.59 1234.72 171.64 C 1233.86 173.43 1233.09 175.25 1232.41 177.11 C 1228.08 177.19 1223.66 177.57 1219.73 179.52 C 1221.24 178.06 1222.69 176.54 1224.15 175.02 C 1223.33 174.89 1221.69 174.63 1220.87 174.50 C 1222.67 173.76 1222.90 172.17 1222.70 170.44 C 1223.46 170.42 1224.99 170.39 1225.75 170.37 C 1225.31 168.96 1224.88 167.55 1224.46 166.15 C 1223.84 166.20 1222.60 166.29 1221.98 166.33 C 1221.03 162.66 1219.96 158.90 1222.05 155.40 Z" />
<path fill="#091623" d=" M 1266.15 157.26 C 1267.38 157.98 1267.35 158.68 1266.05 159.35 C 1264.78 158.62 1264.82 157.93 1266.15 157.26 Z" />
<path fill="#091623" d=" M 1215.45 165.26 C 1216.94 165.26 1218.45 165.26 1219.98 165.28 C 1219.63 167.95 1219.13 170.60 1218.55 173.22 C 1216.09 173.87 1213.45 176.33 1211.04 174.36 C 1211.85 173.34 1212.68 172.32 1213.51 171.30 C 1212.63 170.21 1212.50 168.84 1212.24 167.54 C 1213.02 167.58 1214.58 167.65 1215.36 167.68 C 1215.38 167.08 1215.43 165.87 1215.45 165.26 Z" />
<path class="webkore-svg-text" fill="#0a6dcd" d=" M 1324.45 192.04 C 1326.22 188.32 1330.50 185.78 1334.69 186.47 C 1334.73 187.90 1334.80 189.33 1334.88 190.76 C 1334.37 190.75 1333.35 190.71 1332.84 190.70 C 1332.34 191.86 1331.89 193.02 1331.38 194.17 C 1332.71 195.46 1334.10 196.69 1335.59 197.82 C 1335.60 198.34 1335.63 199.39 1335.64 199.91 C 1337.28 204.06 1339.88 207.90 1340.03 212.51 C 1338.07 212.54 1336.12 212.57 1334.19 212.51 C 1332.97 211.93 1331.75 211.38 1330.52 210.87 C 1330.14 208.35 1330.49 205.83 1331.35 203.44 C 1328.49 200.05 1325.49 196.42 1324.45 192.04 Z" />
<path class="webkore-svg-text" fill="#0a6dcd" d=" M 1300.01 190.09 C 1302.10 187.13 1306.40 187.18 1309.52 185.84 C 1308.41 187.64 1307.65 189.60 1307.07 191.61 C 1304.66 191.39 1301.86 192.05 1300.01 190.09 Z" />
<path class="webkore-svg-text" fill="#0a6dcd" d=" M 1291.15 192.58 C 1291.96 190.61 1293.17 188.84 1294.64 187.30 C 1295.70 188.31 1296.90 189.27 1298.34 189.74 C 1298.73 191.09 1299.27 192.40 1299.69 193.76 C 1301.65 192.96 1303.66 192.27 1305.73 191.72 C 1309.51 194.22 1313.69 196.32 1316.72 199.79 C 1316.34 200.47 1315.57 201.84 1315.19 202.52 C 1311.94 202.78 1308.55 203.06 1305.58 201.46 C 1302.45 199.83 1298.46 199.93 1295.86 202.48 C 1293.89 202.64 1291.19 201.94 1291.23 204.79 C 1289.70 204.69 1288.20 204.58 1286.72 204.46 C 1288.25 203.58 1289.85 202.87 1291.55 202.28 C 1288.18 201.82 1287.56 198.04 1289.63 195.90 C 1289.66 195.09 1289.71 193.47 1289.73 192.66 C 1290.09 192.64 1290.80 192.60 1291.15 192.58 Z" />
<path class="webkore-svg-text" fill="#0a6dcd" d=" M 1256.04 191.47 C 1256.67 191.36 1257.94 191.12 1258.57 191.01 C 1258.62 191.48 1258.72 192.43 1258.77 192.91 C 1259.30 192.75 1260.34 192.45 1260.86 192.29 C 1262.99 196.92 1268.35 197.86 1271.53 201.43 C 1270.61 205.65 1274.52 208.24 1276.87 211.04 L 1274.23 210.57 C 1274.90 210.91 1275.58 211.25 1276.28 211.60 C 1276.52 212.12 1276.99 213.16 1277.22 213.68 C 1277.82 213.73 1279.02 213.84 1279.62 213.90 C 1279.59 213.28 1279.52 212.04 1279.49 211.42 C 1279.99 211.45 1280.99 211.50 1281.49 211.53 C 1281.54 210.98 1281.65 209.89 1281.71 209.34 C 1281.17 209.32 1280.08 209.29 1279.54 209.27 C 1279.06 207.80 1278.61 206.34 1278.14 204.88 C 1280.84 203.89 1283.62 202.94 1286.56 203.46 C 1286.44 204.80 1286.34 206.15 1286.25 207.50 L 1287.41 207.48 C 1286.87 210.64 1289.20 213.01 1290.15 215.81 C 1290.20 215.22 1290.32 214.02 1290.38 213.42 C 1292.33 214.99 1294.99 216.29 1296.37 213.27 C 1298.34 214.20 1300.08 215.54 1301.71 216.99 C 1301.00 217.41 1299.56 218.25 1298.84 218.67 C 1300.74 218.88 1302.36 218.13 1303.68 216.78 C 1303.15 216.28 1302.66 215.76 1302.21 215.23 C 1303.32 213.92 1304.90 213.43 1306.58 213.12 C 1307.21 217.89 1305.86 222.50 1303.60 226.66 C 1300.32 226.74 1296.72 225.61 1293.79 227.60 C 1289.13 226.49 1284.31 225.98 1279.92 223.99 C 1278.23 223.20 1276.33 223.58 1274.57 223.55 C 1274.14 225.55 1274.40 227.80 1273.27 229.57 C 1270.24 229.81 1267.85 226.97 1264.72 227.13 C 1264.24 226.22 1263.78 225.32 1263.33 224.41 C 1259.41 223.77 1255.40 223.27 1251.95 221.14 C 1252.69 220.17 1253.44 219.21 1254.21 218.25 C 1253.83 216.86 1253.50 215.45 1253.21 214.05 C 1252.47 213.78 1251.75 213.52 1251.05 213.26 C 1246.70 214.08 1242.28 214.17 1237.89 214.39 C 1233.96 214.57 1230.48 216.51 1227.13 218.35 C 1224.78 217.94 1222.33 217.94 1220.11 217.10 C 1219.29 213.91 1222.98 214.29 1225.03 213.83 C 1228.64 213.95 1231.52 210.28 1230.64 206.78 C 1232.01 204.59 1233.82 202.70 1236.39 201.98 C 1236.83 200.12 1237.27 198.27 1237.76 196.42 C 1239.77 196.83 1241.80 197.29 1243.83 197.76 C 1245.43 196.52 1247.06 195.31 1248.68 194.07 C 1252.22 195.42 1253.53 199.40 1256.62 201.39 C 1259.16 202.98 1261.84 204.37 1264.35 206.05 C 1264.47 207.57 1264.58 209.09 1264.67 210.62 C 1262.26 210.72 1259.88 210.81 1257.49 210.81 C 1257.49 211.17 1257.47 211.88 1257.47 212.24 C 1259.21 212.89 1260.96 213.62 1262.82 213.94 C 1262.97 213.31 1263.26 212.05 1263.41 211.42 C 1263.83 211.37 1264.67 211.28 1265.09 211.23 C 1265.66 210.12 1266.26 209.02 1266.88 207.92 C 1266.51 207.45 1265.75 206.51 1265.38 206.04 C 1265.73 205.66 1266.44 204.89 1266.80 204.51 C 1267.89 204.95 1269.00 205.37 1270.13 205.76 C 1268.02 203.89 1265.64 202.36 1263.16 201.05 C 1260.65 200.01 1259.27 197.57 1257.47 195.70 C 1256.11 194.69 1256.26 192.95 1256.04 191.47 Z" />
<path fill="#091623" d=" M 1248.64 198.86 C 1249.06 198.75 1249.91 198.54 1250.34 198.44 C 1250.32 199.53 1250.31 200.62 1250.33 201.72 C 1249.89 201.65 1249.01 201.50 1248.57 201.42 C 1248.58 200.57 1248.60 199.71 1248.64 198.86 Z" />
<path fill="#091623" d=" M 1248.22 203.21 C 1248.85 203.18 1250.10 203.14 1250.72 203.11 C 1250.66 204.85 1250.62 206.59 1250.55 208.32 C 1250.01 208.41 1248.94 208.57 1248.41 208.65 C 1248.33 206.83 1248.27 205.02 1248.22 203.21 Z" />
<path fill="#091623" d=" M 1280.47 216.86 C 1282.75 216.81 1285.05 217.09 1287.26 217.77 C 1284.95 218.73 1282.30 218.80 1280.47 216.86 Z" />
<path fill="#091623" d=" M 734.22 230.14 C 741.80 230.44 749.54 229.34 757.00 231.05 C 764.19 233.10 770.86 238.57 772.95 245.92 C 774.41 251.38 773.49 257.51 770.21 262.16 C 765.73 268.65 757.81 272.23 750.04 272.34 C 744.76 272.42 739.49 272.34 734.21 272.34 C 734.23 258.28 734.22 244.21 734.22 230.14 Z" />
<path fill="#091623" d=" M 1128.20 256.68 C 1131.29 258.61 1133.13 261.82 1135.48 264.51 C 1137.68 267.08 1141.37 267.77 1143.47 270.48 C 1144.92 272.29 1146.10 274.30 1147.40 276.24 C 1146.90 277.02 1146.40 277.81 1145.93 278.61 C 1146.89 278.63 1148.80 278.68 1149.76 278.70 C 1149.61 279.65 1149.47 280.60 1149.34 281.55 C 1149.73 281.15 1150.51 280.36 1150.90 279.96 C 1153.91 281.58 1156.52 283.94 1159.82 285.02 C 1163.57 286.33 1166.59 288.99 1169.83 291.19 C 1171.16 292.02 1171.78 293.54 1172.17 295.00 C 1171.22 297.06 1169.78 298.84 1168.49 300.69 C 1169.33 302.81 1169.95 305.01 1170.41 307.25 C 1157.57 298.78 1146.90 287.22 1138.17 274.63 C 1134.47 268.88 1130.69 263.08 1128.20 256.68 Z" />
<path fill="#091623" d=" M 1315.76 307.85 C 1319.40 306.35 1322.31 303.68 1325.29 301.17 C 1325.18 305.68 1321.66 308.77 1319.22 312.17 C 1316.85 315.15 1314.04 319.06 1309.67 318.35 C 1309.35 315.69 1311.48 313.92 1313.02 312.09 C 1313.54 310.46 1313.84 308.42 1315.76 307.85 Z" />
<path fill="#091623" d=" M 1295.97 311.90 C 1300.47 309.96 1304.45 306.47 1309.55 306.25 C 1307.90 311.50 1301.42 312.19 1297.59 315.40 C 1297.24 317.25 1297.80 320.01 1295.51 320.69 C 1291.91 322.18 1289.80 325.65 1286.45 327.49 C 1280.38 331.56 1272.85 331.82 1265.84 332.58 C 1264.93 330.42 1263.63 328.47 1261.90 326.91 C 1262.52 325.45 1263.17 324.00 1263.82 322.55 C 1274.99 320.61 1285.70 316.62 1295.97 311.90 Z" />
</svg>
